%!PS-Adobe-3.0 EPSF-3.0
%%Creator: (MATLAB, The Mathworks, Inc. Version 8.6.0.267246 \(R2015b\). Operating System: Linux)
%%Title: ./kFold_alexNet.eps
%%CreationDate: 2016-03-11T13:39:31
%%Pages: (atend)
%%BoundingBox:     0     3   297   294
%%LanguageLevel: 2
%%EndComments
%%BeginProlog
%%BeginResource: procset (Apache XML Graphics Std ProcSet) 1.2 0
%%Version: 1.2 0
%%Copyright: (Copyright 2001-2003,2010 The Apache Software Foundation. License terms: http://www.apache.org/licenses/LICENSE-2.0)
/bd{bind def}bind def
/ld{load def}bd
/GR/grestore ld
/M/moveto ld
/LJ/setlinejoin ld
/C/curveto ld
/f/fill ld
/LW/setlinewidth ld
/GC/setgray ld
/t/show ld
/N/newpath ld
/CT/concat ld
/cp/closepath ld
/S/stroke ld
/L/lineto ld
/CC/setcmykcolor ld
/A/ashow ld
/GS/gsave ld
/RC/setrgbcolor ld
/RM/rmoveto ld
/ML/setmiterlimit ld
/re {4 2 roll M
1 index 0 rlineto
0 exch rlineto
neg 0 rlineto
cp } bd
/_ctm matrix def
/_tm matrix def
/BT { _ctm currentmatrix pop matrix _tm copy pop 0 0 moveto } bd
/ET { _ctm setmatrix } bd
/iTm { _ctm setmatrix _tm concat } bd
/Tm { _tm astore pop iTm 0 0 moveto } bd
/ux 0.0 def
/uy 0.0 def
/F {
  /Tp exch def
  /Tf exch def
  Tf findfont Tp scalefont setfont
  /cf Tf def  /cs Tp def
} bd
/ULS {currentpoint /uy exch def /ux exch def} bd
/ULE {
  /Tcx currentpoint pop def
  gsave
  newpath
  cf findfont cs scalefont dup
  /FontMatrix get 0 get /Ts exch def /FontInfo get dup
  /UnderlinePosition get Ts mul /To exch def
  /UnderlineThickness get Ts mul /Tt exch def
  ux uy To add moveto  Tcx uy To add lineto
  Tt setlinewidth stroke
  grestore
} bd
/OLE {
  /Tcx currentpoint pop def
  gsave
  newpath
  cf findfont cs scalefont dup
  /FontMatrix get 0 get /Ts exch def /FontInfo get dup
  /UnderlinePosition get Ts mul /To exch def
  /UnderlineThickness get Ts mul /Tt exch def
  ux uy To add cs add moveto Tcx uy To add cs add lineto
  Tt setlinewidth stroke
  grestore
} bd
/SOE {
  /Tcx currentpoint pop def
  gsave
  newpath
  cf findfont cs scalefont dup
  /FontMatrix get 0 get /Ts exch def /FontInfo get dup
  /UnderlinePosition get Ts mul /To exch def
  /UnderlineThickness get Ts mul /Tt exch def
  ux uy To add cs 10 mul 26 idiv add moveto Tcx uy To add cs 10 mul 26 idiv add lineto
  Tt setlinewidth stroke
  grestore
} bd
/QT {
/Y22 exch store
/X22 exch store
/Y21 exch store
/X21 exch store
currentpoint
/Y21 load 2 mul add 3 div exch
/X21 load 2 mul add 3 div exch
/X21 load 2 mul /X22 load add 3 div
/Y21 load 2 mul /Y22 load add 3 div
/X22 load /Y22 load curveto
} bd
/SSPD {
dup length /d exch dict def
{
/v exch def
/k exch def
currentpagedevice k known {
/cpdv currentpagedevice k get def
v cpdv ne {
/upd false def
/nullv v type /nulltype eq def
/nullcpdv cpdv type /nulltype eq def
nullv nullcpdv or
{
/upd true def
} {
/sametype v type cpdv type eq def
sametype {
v type /arraytype eq {
/vlen v length def
/cpdvlen cpdv length def
vlen cpdvlen eq {
0 1 vlen 1 sub {
/i exch def
/obj v i get def
/cpdobj cpdv i get def
obj cpdobj ne {
/upd true def
exit
} if
} for
} {
/upd true def
} ifelse
} {
v type /dicttype eq {
v {
/dv exch def
/dk exch def
/cpddv cpdv dk get def
dv cpddv ne {
/upd true def
exit
} if
} forall
} {
/upd true def
} ifelse
} ifelse
} if
} ifelse
upd true eq {
d k v put
} if
} if
} if
} forall
d length 0 gt {
d setpagedevice
} if
} bd
%%EndResource
%%BeginResource: procset (Apache XML Graphics EPS ProcSet) 1.0 0
%%Version: 1.0 0
%%Copyright: (Copyright 2002-2003 The Apache Software Foundation. License terms: http://www.apache.org/licenses/LICENSE-2.0)
/BeginEPSF { %def
/b4_Inc_state save def         % Save state for cleanup
/dict_count countdictstack def % Count objects on dict stack
/op_count count 1 sub def      % Count objects on operand stack
userdict begin                 % Push userdict on dict stack
/showpage { } def              % Redefine showpage, { } = null proc
0 setgray 0 setlinecap         % Prepare graphics state
1 setlinewidth 0 setlinejoin
10 setmiterlimit [ ] 0 setdash newpath
/languagelevel where           % If level not equal to 1 then
{pop languagelevel             % set strokeadjust and
1 ne                           % overprint to their defaults.
{false setstrokeadjust false setoverprint
} if
} if
} bd
/EndEPSF { %def
count op_count sub {pop} repeat            % Clean up stacks
countdictstack dict_count sub {end} repeat
b4_Inc_state restore
} bd
%%EndResource
%FOPBeginFontDict
%%IncludeResource: font Courier-Bold
%%IncludeResource: font Helvetica
%%IncludeResource: font Courier-BoldOblique
%%IncludeResource: font Courier-Oblique
%%IncludeResource: font Times-Roman
%%IncludeResource: font Helvetica-BoldOblique
%%IncludeResource: font Helvetica-Bold
%%IncludeResource: font Helvetica-Oblique
%%IncludeResource: font Times-BoldItalic
%%IncludeResource: font Courier
%%IncludeResource: font Times-Italic
%%IncludeResource: font Times-Bold
%%IncludeResource: font Symbol
%%IncludeResource: font ZapfDingbats
%FOPEndFontDict
%%BeginResource: encoding WinAnsiEncoding
/WinAnsiEncoding [
/.notdef /.notdef /.notdef /.notdef /.notdef
/.notdef /.notdef /.notdef /.notdef /.notdef
/.notdef /.notdef /.notdef /.notdef /.notdef
/.notdef /.notdef /.notdef /.notdef /.notdef
/.notdef /.notdef /.notdef /.notdef /.notdef
/.notdef /.notdef /.notdef /.notdef /.notdef
/.notdef /.notdef /space /exclam /quotedbl
/numbersign /dollar /percent /ampersand /quotesingle
/parenleft /parenright /asterisk /plus /comma
/hyphen /period /slash /zero /one
/two /three /four /five /six
/seven /eight /nine /colon /semicolon
/less /equal /greater /question /at
/A /B /C /D /E
/F /G /H /I /J
/K /L /M /N /O
/P /Q /R /S /T
/U /V /W /X /Y
/Z /bracketleft /backslash /bracketright /asciicircum
/underscore /quoteleft /a /b /c
/d /e /f /g /h
/i /j /k /l /m
/n /o /p /q /r
/s /t /u /v /w
/x /y /z /braceleft /bar
/braceright /asciitilde /bullet /Euro /bullet
/quotesinglbase /florin /quotedblbase /ellipsis /dagger
/daggerdbl /circumflex /perthousand /Scaron /guilsinglleft
/OE /bullet /Zcaron /bullet /bullet
/quoteleft /quoteright /quotedblleft /quotedblright /bullet
/endash /emdash /asciitilde /trademark /scaron
/guilsinglright /oe /bullet /zcaron /Ydieresis
/space /exclamdown /cent /sterling /currency
/yen /brokenbar /section /dieresis /copyright
/ordfeminine /guillemotleft /logicalnot /sfthyphen /registered
/macron /degree /plusminus /twosuperior /threesuperior
/acute /mu /paragraph /middot /cedilla
/onesuperior /ordmasculine /guillemotright /onequarter /onehalf
/threequarters /questiondown /Agrave /Aacute /Acircumflex
/Atilde /Adieresis /Aring /AE /Ccedilla
/Egrave /Eacute /Ecircumflex /Edieresis /Igrave
/Iacute /Icircumflex /Idieresis /Eth /Ntilde
/Ograve /Oacute /Ocircumflex /Otilde /Odieresis
/multiply /Oslash /Ugrave /Uacute /Ucircumflex
/Udieresis /Yacute /Thorn /germandbls /agrave
/aacute /acircumflex /atilde /adieresis /aring
/ae /ccedilla /egrave /eacute /ecircumflex
/edieresis /igrave /iacute /icircumflex /idieresis
/eth /ntilde /ograve /oacute /ocircumflex
/otilde /odieresis /divide /oslash /ugrave
/uacute /ucircumflex /udieresis /yacute /thorn
/ydieresis
] def
%%EndResource
%FOPBeginFontReencode
/Courier-Bold findfont
dup length dict begin
  {1 index /FID ne {def} {pop pop} ifelse} forall
  /Encoding WinAnsiEncoding def
  currentdict
end
/Courier-Bold exch definefont pop
/Helvetica findfont
dup length dict begin
  {1 index /FID ne {def} {pop pop} ifelse} forall
  /Encoding WinAnsiEncoding def
  currentdict
end
/Helvetica exch definefont pop
/Courier-BoldOblique findfont
dup length dict begin
  {1 index /FID ne {def} {pop pop} ifelse} forall
  /Encoding WinAnsiEncoding def
  currentdict
end
/Courier-BoldOblique exch definefont pop
/Courier-Oblique findfont
dup length dict begin
  {1 index /FID ne {def} {pop pop} ifelse} forall
  /Encoding WinAnsiEncoding def
  currentdict
end
/Courier-Oblique exch definefont pop
/Times-Roman findfont
dup length dict begin
  {1 index /FID ne {def} {pop pop} ifelse} forall
  /Encoding WinAnsiEncoding def
  currentdict
end
/Times-Roman exch definefont pop
/Helvetica-BoldOblique findfont
dup length dict begin
  {1 index /FID ne {def} {pop pop} ifelse} forall
  /Encoding WinAnsiEncoding def
  currentdict
end
/Helvetica-BoldOblique exch definefont pop
/Helvetica-Bold findfont
dup length dict begin
  {1 index /FID ne {def} {pop pop} ifelse} forall
  /Encoding WinAnsiEncoding def
  currentdict
end
/Helvetica-Bold exch definefont pop
/Helvetica-Oblique findfont
dup length dict begin
  {1 index /FID ne {def} {pop pop} ifelse} forall
  /Encoding WinAnsiEncoding def
  currentdict
end
/Helvetica-Oblique exch definefont pop
/Times-BoldItalic findfont
dup length dict begin
  {1 index /FID ne {def} {pop pop} ifelse} forall
  /Encoding WinAnsiEncoding def
  currentdict
end
/Times-BoldItalic exch definefont pop
/Courier findfont
dup length dict begin
  {1 index /FID ne {def} {pop pop} ifelse} forall
  /Encoding WinAnsiEncoding def
  currentdict
end
/Courier exch definefont pop
/Times-Italic findfont
dup length dict begin
  {1 index /FID ne {def} {pop pop} ifelse} forall
  /Encoding WinAnsiEncoding def
  currentdict
end
/Times-Italic exch definefont pop
/Times-Bold findfont
dup length dict begin
  {1 index /FID ne {def} {pop pop} ifelse} forall
  /Encoding WinAnsiEncoding def
  currentdict
end
/Times-Bold exch definefont pop
%FOPEndFontReencode
%%EndProlog
%%Page: 1 1
%%PageBoundingBox: 0 0 311 305
%%BeginPageSetup
[1 0 0 -1 0 305] CT
%%EndPageSetup
GS
[0.75789 0 0 0.75789 0 0.32632] CT
N
0 0 M
410 0 L
410 402 L
0 402 L
0 0 L
cp
clip
1 GC
N
0 0 410 402 re
f
GR
GS
[0.75789 0 0 0.75789 0 0.32632] CT
1 GC
N
0 0 410 402 re
f
GR
GS
[0.75789 0 0 0.75789 0 0.32632] CT
1 GC
N
75 358 M
371 358 L
371 30 L
75 30 L
cp
f
GR
GS
[0.75789 0 0 0.75789 0 0.32632] CT
0.149 GC
2 setlinecap
1 LJ
0.66 LW
N
75 358 M
371 358 L
S
GR
GS
[0.75789 0 0 0.75789 0 0.32632] CT
0.149 GC
2 setlinecap
1 LJ
0.66 LW
N
75 30 M
371 30 L
S
GR
GS
[0.75789 0 0 0.75789 0 0.32632] CT
0.149 GC
2 setlinecap
1 LJ
0.66 LW
N
75 358 M
75 354.72 L
S
GR
GS
[0.75789 0 0 0.75789 0 0.32632] CT
0.149 GC
2 setlinecap
1 LJ
0.66 LW
N
223 358 M
223 354.72 L
S
GR
GS
[0.75789 0 0 0.75789 0 0.32632] CT
0.149 GC
2 setlinecap
1 LJ
0.66 LW
N
371 358 M
371 354.72 L
S
GR
GS
[0.75789 0 0 0.75789 0 0.32632] CT
0.149 GC
2 setlinecap
1 LJ
0.66 LW
N
75 30 M
75 33.28 L
S
GR
GS
[0.75789 0 0 0.75789 0 0.32632] CT
0.149 GC
2 setlinecap
1 LJ
0.66 LW
N
223 30 M
223 33.28 L
S
GR
GS
[0.75789 0 0 0.75789 0 0.32632] CT
0.149 GC
2 setlinecap
1 LJ
0.66 LW
N
371 30 M
371 33.28 L
S
GR
GS
[0.75789 0 0 0.75789 56.84211 277.65262] CT
0.149 GC
/Helvetica 26 F
GS
[1 0 0 1 0 0] CT
-36.5 25 moveto 
1 -1 scale
(pool5) t 
GR
GR
GS
[0.75789 0 0 0.75789 169.01053 277.65262] CT
0.149 GC
/Helvetica 26 F
GS
[1 0 0 1 0 0] CT
-20 25 moveto 
1 -1 scale
(fc6) t 
GR
GR
GS
[0.75789 0 0 0.75789 281.17895 277.65262] CT
0.149 GC
/Helvetica 26 F
GS
[1 0 0 1 0 0] CT
-20 25 moveto 
1 -1 scale
(fc7) t 
GR
GR
GS
[0.75789 0 0 0.75789 0 0.32632] CT
0.149 GC
2 setlinecap
1 LJ
0.66 LW
N
75 358 M
75 30 L
S
GR
GS
[0.75789 0 0 0.75789 0 0.32632] CT
0.149 GC
2 setlinecap
1 LJ
0.66 LW
N
371 358 M
371 30 L
S
GR
GS
[0.75789 0 0 0.75789 0 0.32632] CT
0.149 GC
2 setlinecap
1 LJ
0.66 LW
N
75 358 M
78.28 358 L
S
GR
GS
[0.75789 0 0 0.75789 0 0.32632] CT
0.149 GC
2 setlinecap
1 LJ
0.66 LW
N
75 292.4 M
78.28 292.4 L
S
GR
GS
[0.75789 0 0 0.75789 0 0.32632] CT
0.149 GC
2 setlinecap
1 LJ
0.66 LW
N
75 226.8 M
78.28 226.8 L
S
GR
GS
[0.75789 0 0 0.75789 0 0.32632] CT
0.149 GC
2 setlinecap
1 LJ
0.66 LW
N
75 161.2 M
78.28 161.2 L
S
GR
GS
[0.75789 0 0 0.75789 0 0.32632] CT
0.149 GC
2 setlinecap
1 LJ
0.66 LW
N
75 95.6 M
78.28 95.6 L
S
GR
GS
[0.75789 0 0 0.75789 0 0.32632] CT
0.149 GC
2 setlinecap
1 LJ
0.66 LW
N
75 30 M
78.28 30 L
S
GR
GS
[0.75789 0 0 0.75789 0 0.32632] CT
0.149 GC
2 setlinecap
1 LJ
0.66 LW
N
371 358 M
367.72 358 L
S
GR
GS
[0.75789 0 0 0.75789 0 0.32632] CT
0.149 GC
2 setlinecap
1 LJ
0.66 LW
N
371 292.4 M
367.72 292.4 L
S
GR
GS
[0.75789 0 0 0.75789 0 0.32632] CT
0.149 GC
2 setlinecap
1 LJ
0.66 LW
N
371 226.8 M
367.72 226.8 L
S
GR
GS
[0.75789 0 0 0.75789 0 0.32632] CT
0.149 GC
2 setlinecap
1 LJ
0.66 LW
N
371 161.2 M
367.72 161.2 L
S
GR
GS
[0.75789 0 0 0.75789 0 0.32632] CT
0.149 GC
2 setlinecap
1 LJ
0.66 LW
N
371 95.6 M
367.72 95.6 L
S
GR
GS
[0.75789 0 0 0.75789 0 0.32632] CT
0.149 GC
2 setlinecap
1 LJ
0.66 LW
N
371 30 M
367.72 30 L
S
GR
GS
[0.75789 0 0 0.75789 50.84211 271.65263] CT
0.149 GC
/Helvetica 26 F
GS
[1 0 0 1 0 0] CT
-17 9 moveto 
1 -1 scale
(0) t 
GR
GR
GS
[0.75789 0 0 0.75789 50.84211 221.93473] CT
0.149 GC
/Helvetica 26 F
GS
[1 0 0 1 0 0] CT
-50 9 moveto 
1 -1 scale
(500) t 
GR
GR
GS
[0.75789 0 0 0.75789 50.84211 172.21685] CT
0.149 GC
/Helvetica 26 F
GS
[1 0 0 1 0 0] CT
-67 9 moveto 
1 -1 scale
(1000) t 
GR
GR
GS
[0.75789 0 0 0.75789 50.84211 122.49895] CT
0.149 GC
/Helvetica 26 F
GS
[1 0 0 1 0 0] CT
-67 9 moveto 
1 -1 scale
(1500) t 
GR
GR
GS
[0.75789 0 0 0.75789 50.84211 72.78106] CT
0.149 GC
/Helvetica 26 F
GS
[1 0 0 1 0 0] CT
-67 9 moveto 
1 -1 scale
(2000) t 
GR
GR
GS
[0.75789 0 0 0.75789 50.84211 23.06317] CT
0.149 GC
/Helvetica 26 F
GS
[1 0 0 1 0 0] CT
-67 9 moveto 
1 -1 scale
(2500) t 
GR
GR
GS
[0.75789 0 0 0.75789 0 0.32632] CT
0.149 GC
1 LJ
0.66 LW
N
75 358 M
371 358 L
S
GR
GS
[0.75789 0 0 0.75789 0 0.32632] CT
0.208 0.165 0.525 RC
N
80.92 358 M
98.68 358 L
98.68 95.075 L
80.92 95.075 L
cp
f
GR
GS
[0.75789 0 0 0.75789 0 0.32632] CT
0.208 0.165 0.525 RC
N
110.52 358 M
128.28 358 L
128.28 358 L
110.52 358 L
cp
f
GR
GS
[0.75789 0 0 0.75789 0 0.32632] CT
0.208 0.165 0.525 RC
N
140.12 358 M
157.88 358 L
157.88 358 L
140.12 358 L
cp
f
GR
GS
[0.75789 0 0 0.75789 0 0.32632] CT
0.208 0.165 0.525 RC
N
169.72 358 M
187.48 358 L
187.48 358 L
169.72 358 L
cp
f
GR
GS
[0.75789 0 0 0.75789 0 0.32632] CT
0.208 0.165 0.525 RC
N
199.32 358 M
217.08 358 L
217.08 309.981 L
199.32 309.981 L
cp
f
GR
GS
[0.75789 0 0 0.75789 0 0.32632] CT
0.208 0.165 0.525 RC
N
228.92 358 M
246.68 358 L
246.68 358 L
228.92 358 L
cp
f
GR
GS
[0.75789 0 0 0.75789 0 0.32632] CT
0.208 0.165 0.525 RC
N
258.52 358 M
276.28 358 L
276.28 358 L
258.52 358 L
cp
f
GR
GS
[0.75789 0 0 0.75789 0 0.32632] CT
0.208 0.165 0.525 RC
N
288.12 358 M
305.88 358 L
305.88 358 L
288.12 358 L
cp
f
GR
GS
[0.75789 0 0 0.75789 0 0.32632] CT
0.208 0.165 0.525 RC
N
317.72 358 M
335.48 358 L
335.48 358 L
317.72 358 L
cp
f
GR
GS
[0.75789 0 0 0.75789 0 0.32632] CT
0.208 0.165 0.525 RC
N
347.32 358 M
365.08 358 L
365.08 340.944 L
347.32 340.944 L
cp
f
GR
GS
[0.75789 0 0 0.75789 0 0.32632] CT
10.0 ML
0.66 LW
N
80.92 358 M
80.92 95.075 L
98.68 95.075 L
98.68 358 L
cp
S
GR
GS
[0.75789 0 0 0.75789 0 0.32632] CT
10.0 ML
0.66 LW
N
110.52 358 M
110.52 358 L
128.28 358 L
128.28 358 L
cp
S
GR
GS
[0.75789 0 0 0.75789 0 0.32632] CT
10.0 ML
0.66 LW
N
140.12 358 M
140.12 358 L
157.88 358 L
157.88 358 L
cp
S
GR
GS
[0.75789 0 0 0.75789 0 0.32632] CT
10.0 ML
0.66 LW
N
169.72 358 M
169.72 358 L
187.48 358 L
187.48 358 L
cp
S
GR
GS
[0.75789 0 0 0.75789 0 0.32632] CT
10.0 ML
0.66 LW
N
199.32 358 M
199.32 309.981 L
217.08 309.981 L
217.08 358 L
cp
S
GR
GS
[0.75789 0 0 0.75789 0 0.32632] CT
10.0 ML
0.66 LW
N
228.92 358 M
228.92 358 L
246.68 358 L
246.68 358 L
cp
S
GR
GS
[0.75789 0 0 0.75789 0 0.32632] CT
10.0 ML
0.66 LW
N
258.52 358 M
258.52 358 L
276.28 358 L
276.28 358 L
cp
S
GR
GS
[0.75789 0 0 0.75789 0 0.32632] CT
10.0 ML
0.66 LW
N
288.12 358 M
288.12 358 L
305.88 358 L
305.88 358 L
cp
S
GR
GS
[0.75789 0 0 0.75789 0 0.32632] CT
10.0 ML
0.66 LW
N
317.72 358 M
317.72 358 L
335.48 358 L
335.48 358 L
cp
S
GR
GS
[0.75789 0 0 0.75789 0 0.32632] CT
10.0 ML
0.66 LW
N
347.32 358 M
347.32 340.944 L
365.08 340.944 L
365.08 358 L
cp
S
GR
%%Trailer
%%Pages: 1
%%EOF
